<?xml version="1.0" encoding="UTF-8" standalone="no"?>
<!-- Created with Inkscape (http://www.inkscape.org/) -->

<svg
   width="69.988449mm"
   height="34.907417mm"
   viewBox="0 0 69.98845 34.907417"
   version="1.1"
   id="svg8076"
   inkscape:version="1.1.1 (3bf5ae0d25, 2021-09-20, custom)"
   sodipodi:docname="example_02.svg"
   xmlns:inkscape="http://www.inkscape.org/namespaces/inkscape"
   xmlns:sodipodi="http://sodipodi.sourceforge.net/DTD/sodipodi-0.dtd"
   xmlns="http://www.w3.org/2000/svg"
   xmlns:svg="http://www.w3.org/2000/svg"
   xmlns:rdf="http://www.w3.org/1999/02/22-rdf-syntax-ns#"
   xmlns:cc="http://creativecommons.org/ns#"
   xmlns:dc="http://purl.org/dc/elements/1.1/">
  <defs
     id="defs8070">
    <marker
       inkscape:stockid="Arrow2Mstart"
       orient="auto"
       refY="0"
       refX="0"
       id="Arrow2Mstart"
       style="overflow:visible"
       inkscape:isstock="true">
      <path
         id="path4717"
         style="fill:#000000;fill-opacity:1;fill-rule:evenodd;stroke:#000000;stroke-width:0.625;stroke-linejoin:round;stroke-opacity:1"
         d="M 8.7185878,4.0337352 -2.2072895,0.01601326 8.7185884,-4.0017078 c -1.7454984,2.3720609 -1.7354408,5.6174519 -6e-7,8.035443 z"
         transform="scale(0.6)"
         inkscape:connector-curvature="0" />
    </marker>
    <marker
       inkscape:stockid="Arrow2Mend"
       orient="auto"
       refY="0"
       refX="0"
       id="Arrow2Mend"
       style="overflow:visible"
       inkscape:isstock="true">
      <path
         id="path4720"
         style="fill:#000000;fill-opacity:1;fill-rule:evenodd;stroke:#000000;stroke-width:0.625;stroke-linejoin:round;stroke-opacity:1"
         d="M 8.7185878,4.0337352 -2.2072895,0.01601326 8.7185884,-4.0017078 c -1.7454984,2.3720609 -1.7354408,5.6174519 -6e-7,8.035443 z"
         transform="scale(-0.6)"
         inkscape:connector-curvature="0" />
    </marker>
    <marker
       inkscape:stockid="Arrow2Lend"
       orient="auto"
       refY="0"
       refX="0"
       id="Arrow2Lend"
       style="overflow:visible"
       inkscape:isstock="true">
      <path
         id="path4714"
         style="fill:#000000;fill-opacity:1;fill-rule:evenodd;stroke:#000000;stroke-width:0.625;stroke-linejoin:round;stroke-opacity:1"
         d="M 8.7185878,4.0337352 -2.2072895,0.01601326 8.7185884,-4.0017078 c -1.7454984,2.3720609 -1.7354408,5.6174519 -6e-7,8.035443 z"
         transform="matrix(-1.1,0,0,-1.1,-1.1,0)"
         inkscape:connector-curvature="0" />
    </marker>
    <marker
       inkscape:stockid="Arrow1Lend"
       orient="auto"
       refY="0"
       refX="0"
       id="Arrow1Lend"
       style="overflow:visible"
       inkscape:isstock="true">
      <path
         id="path4696"
         d="M 0,0 5,-5 -12.5,0 5,5 Z"
         style="fill:#000000;fill-opacity:1;fill-rule:evenodd;stroke:#000000;stroke-width:1pt;stroke-opacity:1"
         transform="matrix(-0.8,0,0,-0.8,-10,0)"
         inkscape:connector-curvature="0" />
    </marker>
    <marker
       inkscape:stockid="DotL"
       orient="auto"
       refY="0"
       refX="0"
       id="DotL"
       style="overflow:visible"
       inkscape:isstock="true">
      <path
         id="path4754"
         d="m -2.5,-1 c 0,2.76 -2.24,5 -5,5 -2.76,0 -5,-2.24 -5,-5 0,-2.76 2.24,-5 5,-5 2.76,0 5,2.24 5,5 z"
         style="fill:#000000;fill-opacity:1;fill-rule:evenodd;stroke:#000000;stroke-width:1pt;stroke-opacity:1"
         transform="matrix(0.8,0,0,0.8,5.92,0.8)"
         inkscape:connector-curvature="0" />
    </marker>
    <marker
       inkscape:stockid="Arrow2Mstart"
       orient="auto"
       refY="0"
       refX="0"
       id="Arrow2Mstart-6"
       style="overflow:visible"
       inkscape:isstock="true">
      <path
         id="path4717-2"
         style="fill:#000000;fill-opacity:1;fill-rule:evenodd;stroke:#000000;stroke-width:0.625;stroke-linejoin:round;stroke-opacity:1"
         d="M 8.7185878,4.0337352 -2.2072895,0.01601326 8.7185884,-4.0017078 c -1.7454984,2.3720609 -1.7354408,5.6174519 -6e-7,8.035443 z"
         transform="scale(0.6)"
         inkscape:connector-curvature="0" />
    </marker>
    <marker
       inkscape:stockid="Arrow2Mstart"
       orient="auto"
       refY="0"
       refX="0"
       id="Arrow2Mstart-1"
       style="overflow:visible"
       inkscape:isstock="true">
      <path
         id="path4717-8"
         style="fill:#000000;fill-opacity:1;fill-rule:evenodd;stroke:#000000;stroke-width:0.625;stroke-linejoin:round;stroke-opacity:1"
         d="M 8.7185878,4.0337352 -2.2072895,0.01601326 8.7185884,-4.0017078 c -1.7454984,2.3720609 -1.7354408,5.6174519 -6e-7,8.035443 z"
         transform="scale(0.6)"
         inkscape:connector-curvature="0" />
    </marker>
    <marker
       inkscape:stockid="Arrow2Mend"
       orient="auto"
       refY="0"
       refX="0"
       id="Arrow2Mend-7"
       style="overflow:visible"
       inkscape:isstock="true">
      <path
         id="path4720-9"
         style="fill:#000000;fill-opacity:1;fill-rule:evenodd;stroke:#000000;stroke-width:0.625;stroke-linejoin:round;stroke-opacity:1"
         d="M 8.7185878,4.0337352 -2.2072895,0.01601326 8.7185884,-4.0017078 c -1.7454984,2.3720609 -1.7354408,5.6174519 -6e-7,8.035443 z"
         transform="scale(-0.6)"
         inkscape:connector-curvature="0" />
    </marker>
    <marker
       inkscape:stockid="Arrow2Mstart"
       orient="auto"
       refY="0"
       refX="0"
       id="Arrow2Mstart-8"
       style="overflow:visible"
       inkscape:isstock="true">
      <path
         id="path4717-9"
         style="fill:#000000;fill-opacity:1;fill-rule:evenodd;stroke:#000000;stroke-width:0.625;stroke-linejoin:round;stroke-opacity:1"
         d="M 8.7185878,4.0337352 -2.2072895,0.01601326 8.7185884,-4.0017078 c -1.7454984,2.3720609 -1.7354408,5.6174519 -6e-7,8.035443 z"
         transform="scale(0.6)"
         inkscape:connector-curvature="0" />
    </marker>
    <marker
       inkscape:stockid="Arrow2Mend"
       orient="auto"
       refY="0"
       refX="0"
       id="Arrow2Mend-73"
       style="overflow:visible"
       inkscape:isstock="true">
      <path
         id="path4720-6"
         style="fill:#000000;fill-opacity:1;fill-rule:evenodd;stroke:#000000;stroke-width:0.625;stroke-linejoin:round;stroke-opacity:1"
         d="M 8.7185878,4.0337352 -2.2072895,0.01601326 8.7185884,-4.0017078 c -1.7454984,2.3720609 -1.7354408,5.6174519 -6e-7,8.035443 z"
         transform="scale(-0.6)"
         inkscape:connector-curvature="0" />
    </marker>
    <marker
       inkscape:stockid="Arrow2Mstart"
       orient="auto"
       refY="0"
       refX="0"
       id="Arrow2Mstart-2"
       style="overflow:visible"
       inkscape:isstock="true">
      <path
         id="path4717-93"
         style="fill:#000000;fill-opacity:1;fill-rule:evenodd;stroke:#000000;stroke-width:0.625;stroke-linejoin:round;stroke-opacity:1"
         d="M 8.7185878,4.0337352 -2.2072895,0.01601326 8.7185884,-4.0017078 c -1.7454984,2.3720609 -1.7354408,5.6174519 -6e-7,8.035443 z"
         transform="scale(0.6)"
         inkscape:connector-curvature="0" />
    </marker>
    <marker
       inkscape:stockid="Arrow2Mend"
       orient="auto"
       refY="0"
       refX="0"
       id="Arrow2Mend-1"
       style="overflow:visible"
       inkscape:isstock="true">
      <path
         id="path4720-94"
         style="fill:#000000;fill-opacity:1;fill-rule:evenodd;stroke:#000000;stroke-width:0.625;stroke-linejoin:round;stroke-opacity:1"
         d="M 8.7185878,4.0337352 -2.2072895,0.01601326 8.7185884,-4.0017078 c -1.7454984,2.3720609 -1.7354408,5.6174519 -6e-7,8.035443 z"
         transform="scale(-0.6)"
         inkscape:connector-curvature="0" />
    </marker>
    <marker
       inkscape:stockid="Arrow2Mstart"
       orient="auto"
       refY="0"
       refX="0"
       id="Arrow2Mstart-9"
       style="overflow:visible"
       inkscape:isstock="true">
      <path
         id="path4717-20"
         style="fill:#000000;fill-opacity:1;fill-rule:evenodd;stroke:#000000;stroke-width:0.625;stroke-linejoin:round;stroke-opacity:1"
         d="M 8.7185878,4.0337352 -2.2072895,0.01601326 8.7185884,-4.0017078 c -1.7454984,2.3720609 -1.7354408,5.6174519 -6e-7,8.035443 z"
         transform="scale(0.6)"
         inkscape:connector-curvature="0" />
    </marker>
    <marker
       inkscape:stockid="Arrow2Mend"
       orient="auto"
       refY="0"
       refX="0"
       id="Arrow2Mend-2"
       style="overflow:visible"
       inkscape:isstock="true">
      <path
         id="path4720-3"
         style="fill:#000000;fill-opacity:1;fill-rule:evenodd;stroke:#000000;stroke-width:0.625;stroke-linejoin:round;stroke-opacity:1"
         d="M 8.7185878,4.0337352 -2.2072895,0.01601326 8.7185884,-4.0017078 c -1.7454984,2.3720609 -1.7354408,5.6174519 -6e-7,8.035443 z"
         transform="scale(-0.6)"
         inkscape:connector-curvature="0" />
    </marker>
    <marker
       inkscape:stockid="Arrow2Mstart"
       orient="auto"
       refY="0"
       refX="0"
       id="Arrow2Mstart-5"
       style="overflow:visible"
       inkscape:isstock="true">
      <path
         id="path4717-92"
         style="fill:#000000;fill-opacity:1;fill-rule:evenodd;stroke:#000000;stroke-width:0.625;stroke-linejoin:round;stroke-opacity:1"
         d="M 8.7185878,4.0337352 -2.2072895,0.01601326 8.7185884,-4.0017078 c -1.7454984,2.3720609 -1.7354408,5.6174519 -6e-7,8.035443 z"
         transform="scale(0.6)"
         inkscape:connector-curvature="0" />
    </marker>
    <marker
       inkscape:stockid="Arrow2Mend"
       orient="auto"
       refY="0"
       refX="0"
       id="Arrow2Mend-28"
       style="overflow:visible"
       inkscape:isstock="true">
      <path
         id="path4720-97"
         style="fill:#000000;fill-opacity:1;fill-rule:evenodd;stroke:#000000;stroke-width:0.625;stroke-linejoin:round;stroke-opacity:1"
         d="M 8.7185878,4.0337352 -2.2072895,0.01601326 8.7185884,-4.0017078 c -1.7454984,2.3720609 -1.7354408,5.6174519 -6e-7,8.035443 z"
         transform="scale(-0.6)"
         inkscape:connector-curvature="0" />
    </marker>
  </defs>
  <sodipodi:namedview
     id="base"
     pagecolor="#ffffff"
     bordercolor="#666666"
     borderopacity="1.0"
     inkscape:pageopacity="0.0"
     inkscape:pageshadow="2"
     inkscape:zoom="22.4"
     inkscape:cx="228.34821"
     inkscape:cy="75.580357"
     inkscape:document-units="mm"
     inkscape:current-layer="layer11"
     showgrid="false"
     inkscape:window-width="1280"
     inkscape:window-height="970"
     inkscape:window-x="0"
     inkscape:window-y="29"
     inkscape:window-maximized="1"
     fit-margin-top="0"
     fit-margin-left="0"
     fit-margin-right="0"
     fit-margin-bottom="0"
     showguides="true"
     inkscape:guide-bbox="true"
     inkscape:snap-object-midpoints="true"
     inkscape:object-paths="true"
     inkscape:snap-global="true"
     inkscape:pagecheckerboard="0"
     inkscape:snap-text-baseline="true">
    <sodipodi:guide
       position="-8.3272869,24.395268"
       orientation="0,1"
       id="guide8099"
       inkscape:locked="false" />
    <sodipodi:guide
       position="54.145209,49.534608"
       orientation="1,0"
       id="guide8103"
       inkscape:locked="false" />
    <sodipodi:guide
       position="7.2801086e-07,41.463256"
       orientation="1,0"
       id="guide8105"
       inkscape:locked="false" />
    <sodipodi:guide
       position="43.475796,-1.2404264"
       orientation="1,0"
       id="guide8778"
       inkscape:locked="false" />
    <sodipodi:guide
       position="-4.2522314,34.423449"
       orientation="0,1"
       id="guide8780"
       inkscape:locked="false" />
    <sodipodi:guide
       position="-13.247739,10.490151"
       orientation="0,1"
       id="guide8782"
       inkscape:locked="false" />
    <sodipodi:guide
       position="-10.557145,0.48396562"
       orientation="0,-1"
       id="guide21866" />
    <sodipodi:guide
       position="2.311777,19.338301"
       orientation="0,-1"
       id="guide27366" />
    <sodipodi:guide
       position="-8.5802534,13.525854"
       orientation="0,-1"
       id="guide27368" />
    <sodipodi:guide
       position="63.122021,25.233595"
       orientation="1,0"
       id="guide32118" />
    <sodipodi:guide
       position="69.988448,39.508303"
       orientation="1,0"
       id="guide62323" />
    <sodipodi:guide
       position="75.855731,19.338302"
       orientation="0,-1"
       id="guide63098" />
    <sodipodi:guide
       position="47.273297,27.458644"
       orientation="0,-1"
       id="guide76379" />
    <sodipodi:guide
       position="74.434563,20.140773"
       orientation="0,-1"
       id="guide79877" />
    <sodipodi:guide
       position="72.262998,13.525854"
       orientation="0,-1"
       id="guide79879" />
    <sodipodi:guide
       position="9.5086705,11.966706"
       orientation="0,-1"
       id="guide7748" />
    <sodipodi:guide
       position="47.199775,16.528324"
       orientation="1,0"
       id="guide15621" />
    <sodipodi:guide
       position="72.193449,3.5826396"
       orientation="0,-1"
       id="guide15623" />
    <sodipodi:guide
       position="56.885414,31.647371"
       orientation="1,0"
       id="guide15625" />
    <sodipodi:guide
       position="-7.8586539,13.044883"
       orientation="0,-1"
       id="guide21586" />
    <sodipodi:guide
       position="45.402409,28.42613"
       orientation="0,-1"
       id="guide23418" />
    <sodipodi:guide
       position="45.230699,4.4843233"
       orientation="0,-1"
       id="guide23420" />
  </sodipodi:namedview>
  <metadata
     id="metadata8073">
    <rdf:RDF>
      <cc:Work
         rdf:about="">
        <dc:format>image/svg+xml</dc:format>
        <dc:type
           rdf:resource="http://purl.org/dc/dcmitype/StillImage" />
      </cc:Work>
    </rdf:RDF>
  </metadata>
  <g
     inkscape:groupmode="layer"
     id="layer13"
     inkscape:label="frame"
     style="display:none"
     transform="translate(7.2801088e-7,0.51670471)"
     sodipodi:insensitive="true">
    <path
       style="fill:#e0ebc0;fill-opacity:1;fill-rule:evenodd;stroke:none;stroke-width:0.264583px;stroke-linecap:butt;stroke-linejoin:miter;stroke-opacity:1"
       d="m 0,-0.032738 v 33.939485 l 69.988448,10e-7 10e-7,-33.93948551 z"
       id="path8784"
       inkscape:connector-curvature="0"
       sodipodi:nodetypes="ccccc" />
  </g>
  <g
     inkscape:label="stripes"
     inkscape:groupmode="layer"
     id="layer1"
     transform="translate(7.2801088e-7,-276.48331)"
     style="display:inline"
     sodipodi:insensitive="true">
    <path
       style="display:inline;fill:none;fill-rule:evenodd;stroke:#000000;stroke-width:0.141111;stroke-linecap:butt;stroke-linejoin:miter;stroke-miterlimit:4;stroke-dasharray:1.12889, 1.12889;stroke-dashoffset:0.197556;stroke-opacity:1"
       d="M 43.475797,300.90057 H -7.2801087e-7"
       id="path8109-6"
       inkscape:connector-curvature="0"
       sodipodi:nodetypes="cc" />
    <path
       sodipodi:nodetypes="cc"
       inkscape:connector-curvature="0"
       id="path8394-7"
       d="M 43.475797,302.90057 H -7.2801087e-7"
       style="display:inline;fill:none;fill-rule:evenodd;stroke:#000000;stroke-width:0.141111;stroke-linecap:butt;stroke-linejoin:miter;stroke-miterlimit:4;stroke-dasharray:none;stroke-dashoffset:0.197556;stroke-opacity:1" />
    <path
       style="display:inline;fill:none;fill-rule:evenodd;stroke:#000000;stroke-width:0.141111;stroke-linecap:butt;stroke-linejoin:miter;stroke-miterlimit:4;stroke-dasharray:none;stroke-dashoffset:0.197556;stroke-opacity:1"
       d="M 43.475797,304.90057 H -7.2801087e-7"
       id="path8396-5"
       inkscape:connector-curvature="0"
       sodipodi:nodetypes="cc" />
    <path
       sodipodi:nodetypes="cc"
       inkscape:connector-curvature="0"
       id="path8398-3"
       d="M 43.475797,306.90057 H -7.2801087e-7"
       style="display:inline;fill:none;fill-rule:evenodd;stroke:#000000;stroke-width:0.141111;stroke-linecap:butt;stroke-linejoin:miter;stroke-miterlimit:4;stroke-dasharray:none;stroke-dashoffset:0.197556;stroke-opacity:1" />
    <path
       style="display:inline;fill:none;fill-rule:evenodd;stroke:#000000;stroke-width:0.141111;stroke-linecap:butt;stroke-linejoin:miter;stroke-miterlimit:4;stroke-dasharray:none;stroke-dashoffset:0.197556;stroke-opacity:1"
       d="M 43.475797,308.90057 H -7.2801087e-7"
       id="path8400-5"
       inkscape:connector-curvature="0"
       sodipodi:nodetypes="cc" />
    <path
       sodipodi:nodetypes="cc"
       inkscape:connector-curvature="0"
       id="path8402-6"
       d="M 43.475797,310.90057 H -7.2801087e-7"
       style="display:inline;fill:none;fill-rule:evenodd;stroke:#000000;stroke-width:0.141111;stroke-linecap:butt;stroke-linejoin:miter;stroke-miterlimit:4;stroke-dasharray:1.12889, 1.12889;stroke-dashoffset:0.183444;stroke-opacity:1" />
    <path
       style="display:inline;fill:none;fill-rule:evenodd;stroke:#000000;stroke-width:0.141111;stroke-linecap:butt;stroke-linejoin:miter;stroke-miterlimit:4;stroke-dasharray:1.12889, 1.12889;stroke-dashoffset:0.197556;stroke-opacity:1"
       d="M 1e-6,286.96728 H 43.475799"
       id="path8109-6-6"
       inkscape:connector-curvature="0"
       sodipodi:nodetypes="cc" />
    <path
       sodipodi:nodetypes="cc"
       inkscape:connector-curvature="0"
       id="path8394-7-7"
       d="M 1e-6,284.96728 H 43.475799"
       style="display:inline;fill:none;fill-rule:evenodd;stroke:#000000;stroke-width:0.141111;stroke-linecap:butt;stroke-linejoin:miter;stroke-miterlimit:4;stroke-dasharray:none;stroke-dashoffset:0.197556;stroke-opacity:1" />
    <path
       style="display:inline;fill:none;fill-rule:evenodd;stroke:#000000;stroke-width:0.141111;stroke-linecap:butt;stroke-linejoin:miter;stroke-miterlimit:4;stroke-dasharray:none;stroke-dashoffset:0.197556;stroke-opacity:1"
       d="M 1e-6,282.96728 H 43.475799"
       id="path8396-5-5"
       inkscape:connector-curvature="0"
       sodipodi:nodetypes="cc" />
    <path
       sodipodi:nodetypes="cc"
       inkscape:connector-curvature="0"
       id="path8398-3-3"
       d="M 1e-6,280.96728 H 43.475799"
       style="display:inline;fill:none;fill-rule:evenodd;stroke:#000000;stroke-width:0.141111;stroke-linecap:butt;stroke-linejoin:miter;stroke-miterlimit:4;stroke-dasharray:none;stroke-dashoffset:0.197556;stroke-opacity:1" />
    <path
       style="display:inline;fill:none;fill-rule:evenodd;stroke:#000000;stroke-width:0.141111;stroke-linecap:butt;stroke-linejoin:miter;stroke-miterlimit:4;stroke-dasharray:none;stroke-dashoffset:0.197556;stroke-opacity:1"
       d="M 1e-6,278.96728 H 43.475799"
       id="path8400-5-5"
       inkscape:connector-curvature="0"
       sodipodi:nodetypes="cc" />
    <path
       sodipodi:nodetypes="cc"
       inkscape:connector-curvature="0"
       id="path8402-6-6"
       d="M 1e-6,276.96728 H 43.475799"
       style="display:inline;fill:none;fill-rule:evenodd;stroke:#000000;stroke-width:0.141111;stroke-linecap:butt;stroke-linejoin:miter;stroke-miterlimit:4;stroke-dasharray:1.12889, 1.12889;stroke-dashoffset:0.183444;stroke-opacity:1" />
  </g>
  <g
     inkscape:groupmode="layer"
     id="layer8"
     inkscape:label="intervals"
     transform="translate(7.2801088e-7,-4.4832953)"
     style="display:inline"
     sodipodi:insensitive="true">
    <path
       style="display:inline;fill:none;fill-rule:evenodd;stroke:#000000;stroke-width:0.493889;stroke-linecap:butt;stroke-linejoin:miter;stroke-miterlimit:4;stroke-dasharray:none;stroke-opacity:1"
       d="M 25.655133,300.90058 H 17.623139"
       transform="translate(0,-272.00002)"
       id="path8419" />
    <path
       style="display:inline;fill:none;fill-rule:evenodd;stroke:#000000;stroke-width:0.493889;stroke-linecap:butt;stroke-linejoin:miter;stroke-miterlimit:4;stroke-dasharray:none;stroke-opacity:1"
       d="M 39.293714,300.90058 H 31.26172"
       transform="translate(0,-272.00002)"
       id="path8417" />
    <path
       style="display:inline;fill:none;fill-rule:evenodd;stroke:#000000;stroke-width:0.493889;stroke-linecap:butt;stroke-linejoin:miter;stroke-miterlimit:4;stroke-dasharray:none;stroke-opacity:1"
       d="M 12.000743,300.90058 H 4.0632433"
       transform="translate(0,-272.00002)"
       id="path8415" />
    <path
       style="display:inline;fill:none;fill-rule:evenodd;stroke:#000000;stroke-width:0.493889;stroke-linecap:butt;stroke-linejoin:miter;stroke-miterlimit:4;stroke-dasharray:none;stroke-opacity:1"
       d="m 17.820665,286.96727 h 8.031994"
       transform="translate(0,-272.00002)"
       id="path8413" />
    <path
       style="display:inline;fill:none;fill-rule:evenodd;stroke:#000000;stroke-width:0.493889;stroke-linecap:butt;stroke-linejoin:miter;stroke-miterlimit:4;stroke-dasharray:none;stroke-opacity:1"
       d="m 4.182084,286.96727 h 8.031994"
       transform="translate(0,-272.00002)"
       id="path8411" />
    <path
       style="display:inline;fill:none;fill-rule:evenodd;stroke:#000000;stroke-width:0.493889;stroke-linecap:butt;stroke-linejoin:miter;stroke-miterlimit:4;stroke-dasharray:none;stroke-opacity:1"
       d="m 31.475055,286.96727 h 7.9375"
       transform="translate(0,-272.00002)"
       id="path8136-9-1" />
    <path
       style="display:inline;fill:none;stroke:#000000;stroke-width:0.352778;stroke-linecap:butt;stroke-linejoin:miter;stroke-miterlimit:4;stroke-dasharray:none;stroke-opacity:1"
       d="M 63.122023,38.906746 V 30.32182"
       id="path32153"
       sodipodi:nodetypes="cc" />
    <path
       style="display:inline;fill:none;stroke:#000000;stroke-width:0.352778;stroke-linecap:butt;stroke-linejoin:miter;stroke-miterlimit:4;stroke-dasharray:none;stroke-opacity:1"
       d="m 63.122019,4.967262 v 8.584926"
       id="path32153-2"
       sodipodi:nodetypes="cc" />
  </g>
  <g
     inkscape:groupmode="layer"
     id="layer9"
     inkscape:label="dots"
     style="display:inline"
     transform="translate(7.2801088e-7,-4.4832953)"
     sodipodi:insensitive="true">
    <circle
       style="display:inline;fill:#000000;fill-opacity:1;stroke:#000000;stroke-width:0.141111;stroke-linecap:round;stroke-linejoin:round;stroke-miterlimit:4;stroke-dasharray:none;stroke-dashoffset:0;stroke-opacity:1"
       id="path8139-1-6-4"
       cx="-63.122021"
       cy="-28.900562"
       r="0.41341144"
       transform="scale(-1)" />
    <circle
       style="display:inline;fill:#fdfffe;fill-opacity:1;stroke:#000000;stroke-width:0.141111;stroke-linecap:round;stroke-linejoin:round;stroke-miterlimit:4;stroke-dasharray:none;stroke-dashoffset:0;stroke-opacity:1"
       id="path8139-1-6-0"
       cx="-63.122021"
       cy="-38.906746"
       r="0.41341144"
       transform="scale(-1)" />
    <circle
       style="display:inline;fill:#000000;fill-opacity:1;stroke:#000000;stroke-width:0.141111;stroke-linecap:round;stroke-linejoin:round;stroke-miterlimit:4;stroke-dasharray:none;stroke-dashoffset:0;stroke-opacity:1"
       id="path8139-1-6-6"
       cx="-61.164055"
       cy="-28.900562"
       r="0.41341144"
       transform="scale(-1)" />
    <circle
       style="display:inline;fill:#000000;fill-opacity:1;stroke:#000000;stroke-width:0.141111;stroke-linecap:round;stroke-linejoin:round;stroke-miterlimit:4;stroke-dasharray:none;stroke-dashoffset:0;stroke-opacity:1"
       id="path8139-1-6-1"
       cx="-65.069084"
       cy="-28.900562"
       r="0.41341144"
       transform="scale(-1)" />
    <circle
       style="display:inline;fill:#000000;fill-opacity:1;stroke:#000000;stroke-width:0.141111;stroke-linecap:round;stroke-linejoin:round;stroke-miterlimit:4;stroke-dasharray:none;stroke-dashoffset:0;stroke-opacity:1"
       id="path8139-1-6-4-6"
       cx="63.122021"
       cy="14.973446"
       r="0.41341144" />
    <circle
       style="display:inline;fill:#fdfffe;fill-opacity:1;stroke:#000000;stroke-width:0.141111;stroke-linecap:round;stroke-linejoin:round;stroke-miterlimit:4;stroke-dasharray:none;stroke-dashoffset:0;stroke-opacity:1"
       id="path8139-1-6-0-1"
       cx="63.122021"
       cy="4.9672623"
       r="0.41341144" />
    <circle
       style="display:inline;fill:#000000;fill-opacity:1;stroke:#000000;stroke-width:0.141111;stroke-linecap:round;stroke-linejoin:round;stroke-miterlimit:4;stroke-dasharray:none;stroke-dashoffset:0;stroke-opacity:1"
       id="path8139-1-6-6-8"
       cx="65.079987"
       cy="14.973446"
       r="0.41341144" />
    <circle
       style="display:inline;fill:#000000;fill-opacity:1;stroke:#000000;stroke-width:0.141111;stroke-linecap:round;stroke-linejoin:round;stroke-miterlimit:4;stroke-dasharray:none;stroke-dashoffset:0;stroke-opacity:1"
       id="path8139-1-6-1-7"
       cx="61.174957"
       cy="14.973446"
       r="0.41341144" />
    <circle
       style="display:inline;fill:#fdfffe;fill-opacity:1;stroke:#000000;stroke-width:0.141111;stroke-linecap:round;stroke-linejoin:round;stroke-miterlimit:4;stroke-dasharray:none;stroke-dashoffset:0;stroke-opacity:1"
       id="path8139-1"
       cx="-25.655134"
       cy="-300.90057"
       r="0.41341144"
       transform="rotate(180,0,-136.00001)" />
    <circle
       r="0.41341144"
       cy="-300.90057"
       cx="-17.62314"
       id="circle8143-2"
       style="display:inline;fill:#fdfffe;fill-opacity:1;stroke:#000000;stroke-width:0.141111;stroke-linecap:round;stroke-linejoin:round;stroke-miterlimit:4;stroke-dasharray:none;stroke-dashoffset:0;stroke-opacity:1"
       transform="rotate(180,0,-136.00001)" />
    <circle
       style="display:inline;fill:#fdfffe;fill-opacity:1;stroke:#000000;stroke-width:0.141111;stroke-linecap:round;stroke-linejoin:round;stroke-miterlimit:4;stroke-dasharray:none;stroke-dashoffset:0;stroke-opacity:1"
       id="path8139-1-6"
       cx="-39.293716"
       cy="-300.90057"
       r="0.41341144"
       transform="rotate(180,0,-136.00001)" />
    <circle
       r="0.41341144"
       cy="-300.90057"
       cx="-31.261721"
       id="circle8143-2-0"
       style="display:inline;fill:#fdfffe;fill-opacity:1;stroke:#000000;stroke-width:0.141111;stroke-linecap:round;stroke-linejoin:round;stroke-miterlimit:4;stroke-dasharray:none;stroke-dashoffset:0;stroke-opacity:1"
       transform="rotate(180,0,-136.00001)" />
    <circle
       style="display:inline;fill:#fdfffe;fill-opacity:1;stroke:#000000;stroke-width:0.141111;stroke-linecap:round;stroke-linejoin:round;stroke-miterlimit:4;stroke-dasharray:none;stroke-dashoffset:0;stroke-opacity:1"
       id="circle8145-7"
       cx="-12.000743"
       cy="-300.90057"
       r="0.41341144"
       transform="rotate(180,0,-136.00001)" />
    <circle
       r="0.41341144"
       cy="-300.90057"
       cx="-4.0632434"
       id="circle8147-0"
       style="display:inline;fill:#fdfffe;fill-opacity:1;stroke:#000000;stroke-width:0.141111;stroke-linecap:round;stroke-linejoin:round;stroke-miterlimit:4;stroke-dasharray:none;stroke-dashoffset:0;stroke-opacity:1"
       transform="rotate(180,0,-136.00001)" />
    <circle
       style="display:inline;fill:#fdfffe;fill-opacity:1;stroke:#000000;stroke-width:0.141111;stroke-linecap:round;stroke-linejoin:round;stroke-miterlimit:4;stroke-dasharray:none;stroke-dashoffset:0;stroke-opacity:1"
       id="path8139-1-2"
       cx="17.820663"
       cy="286.96725"
       r="0.41341144"
       transform="translate(0,-272.00002)" />
    <circle
       r="0.41341144"
       cy="286.96725"
       cx="25.852657"
       id="circle8143-2-7"
       style="display:inline;fill:#fdfffe;fill-opacity:1;stroke:#000000;stroke-width:0.141111;stroke-linecap:round;stroke-linejoin:round;stroke-miterlimit:4;stroke-dasharray:none;stroke-dashoffset:0;stroke-opacity:1"
       transform="translate(0,-272.00002)" />
    <circle
       style="display:inline;fill:#fdfffe;fill-opacity:1;stroke:#000000;stroke-width:0.141111;stroke-linecap:round;stroke-linejoin:round;stroke-miterlimit:4;stroke-dasharray:none;stroke-dashoffset:0;stroke-opacity:1"
       id="path8139-1-6-09"
       cx="4.1820817"
       cy="286.96725"
       r="0.41341144"
       transform="translate(0,-272.00002)" />
    <circle
       r="0.41341144"
       cy="286.96725"
       cx="12.214077"
       id="circle8143-2-0-3"
       style="display:inline;fill:#fdfffe;fill-opacity:1;stroke:#000000;stroke-width:0.141111;stroke-linecap:round;stroke-linejoin:round;stroke-miterlimit:4;stroke-dasharray:none;stroke-dashoffset:0;stroke-opacity:1"
       transform="translate(0,-272.00002)" />
    <circle
       style="display:inline;fill:#fdfffe;fill-opacity:1;stroke:#000000;stroke-width:0.141111;stroke-linecap:round;stroke-linejoin:round;stroke-miterlimit:4;stroke-dasharray:none;stroke-dashoffset:0;stroke-opacity:1"
       id="circle8145-7-6"
       cx="31.475056"
       cy="286.96725"
       r="0.41341144"
       transform="translate(0,-272.00002)" />
    <circle
       r="0.41341144"
       cy="286.96725"
       cx="39.412556"
       id="circle8147-0-0"
       style="display:inline;fill:#fdfffe;fill-opacity:1;stroke:#000000;stroke-width:0.141111;stroke-linecap:round;stroke-linejoin:round;stroke-miterlimit:4;stroke-dasharray:none;stroke-dashoffset:0;stroke-opacity:1"
       transform="translate(0,-272.00002)" />
  </g>
  <g
     inkscape:groupmode="layer"
     id="layer10"
     inkscape:label="arrows"
     transform="translate(7.2801088e-7,-4.4832953)"
     style="display:inline"
     sodipodi:insensitive="true">
    <path
       style="fill:none;fill-opacity:1;fill-rule:evenodd;stroke:#000000;stroke-width:0.246944;stroke-linecap:butt;stroke-linejoin:miter;stroke-miterlimit:4;stroke-dasharray:none;stroke-opacity:1;marker-start:url(#Arrow2Mstart);marker-end:url(#Arrow2Mend)"
       d="M 9.5086701,27.424006 C 11.030298,21.779682 9.0174173,22.269438 10.44129,16.536178"
       id="path8150"
       inkscape:connector-curvature="0"
       sodipodi:nodetypes="cc" />
    <path
       style="display:inline;fill:none;fill-opacity:1;fill-rule:evenodd;stroke:#000000;stroke-width:0.246944;stroke-linecap:butt;stroke-linejoin:miter;stroke-miterlimit:4;stroke-dasharray:none;stroke-opacity:1;marker-start:url(#Arrow2Mstart-9);marker-end:url(#Arrow2Mend-2)"
       d="m 23.227885,27.424006 c 1.521628,-5.644324 -0.491253,-5.154568 0.93262,-10.887828"
       id="path8150-7"
       inkscape:connector-curvature="0"
       sodipodi:nodetypes="cc" />
    <path
       style="display:inline;fill:none;fill-opacity:1;fill-rule:evenodd;stroke:#000000;stroke-width:0.246944;stroke-linecap:butt;stroke-linejoin:miter;stroke-miterlimit:4;stroke-dasharray:none;stroke-opacity:1;marker-start:url(#Arrow2Mstart-5);marker-end:url(#Arrow2Mend-28)"
       d="m 36.390486,27.424006 c 1.521628,-5.644324 -0.491253,-5.154568 0.93262,-10.887828"
       id="path8150-3"
       inkscape:connector-curvature="0"
       sodipodi:nodetypes="cc" />
    <g
       id="g9525-2"
       style="display:inline"
       transform="translate(0.29184319,-13.939185)">
      <path
         style="fill:none;stroke:#000000;stroke-width:0.176389;stroke-linecap:round;stroke-linejoin:round;stroke-miterlimit:4;stroke-dasharray:none;stroke-opacity:1"
         d="m 5.3125628,28.15837 1.207295,0.722613 -1.1789864,0.773509"
         id="path9281-9"
         sodipodi:nodetypes="ccc" />
      <path
         style="display:inline;fill:none;stroke:#000000;stroke-width:0.176389;stroke-linecap:round;stroke-linejoin:round;stroke-miterlimit:4;stroke-dasharray:none;stroke-opacity:1"
         d="m 7.3025942,28.158374 1.207295,0.722613 -1.1789864,0.773509"
         id="path9281-6-3"
         sodipodi:nodetypes="ccc" />
      <path
         style="display:inline;fill:none;stroke:#000000;stroke-width:0.176389;stroke-linecap:round;stroke-linejoin:round;stroke-miterlimit:4;stroke-dasharray:none;stroke-opacity:1"
         d="m 9.2183966,28.15837 1.2072954,0.722613 -1.1789864,0.773509"
         id="path9281-1-1"
         sodipodi:nodetypes="ccc" />
    </g>
    <g
       id="g9525-2-4"
       style="display:inline"
       transform="translate(0.12575534,-0.005875)">
      <path
         style="fill:none;stroke:#000000;stroke-width:0.176389;stroke-linecap:round;stroke-linejoin:round;stroke-miterlimit:4;stroke-dasharray:none;stroke-opacity:1"
         d="m 5.3125628,28.15837 1.207295,0.722613 -1.1789864,0.773509"
         id="path9281-9-7"
         sodipodi:nodetypes="ccc" />
      <path
         style="display:inline;fill:none;stroke:#000000;stroke-width:0.176389;stroke-linecap:round;stroke-linejoin:round;stroke-miterlimit:4;stroke-dasharray:none;stroke-opacity:1"
         d="m 7.3025942,28.158374 1.207295,0.722613 -1.1789864,0.773509"
         id="path9281-6-3-6"
         sodipodi:nodetypes="ccc" />
      <path
         style="display:inline;fill:none;stroke:#000000;stroke-width:0.176389;stroke-linecap:round;stroke-linejoin:round;stroke-miterlimit:4;stroke-dasharray:none;stroke-opacity:1"
         d="m 9.2183966,28.15837 1.2072954,0.722613 -1.1789864,0.773509"
         id="path9281-1-1-5"
         sodipodi:nodetypes="ccc" />
    </g>
    <g
       id="g9525-2-6"
       style="display:inline"
       transform="translate(13.930424,-13.939185)">
      <path
         style="fill:none;stroke:#000000;stroke-width:0.176389;stroke-linecap:round;stroke-linejoin:round;stroke-miterlimit:4;stroke-dasharray:none;stroke-opacity:1"
         d="m 5.3125628,28.15837 1.207295,0.722613 -1.1789864,0.773509"
         id="path9281-9-9"
         sodipodi:nodetypes="ccc" />
      <path
         style="display:inline;fill:none;stroke:#000000;stroke-width:0.176389;stroke-linecap:round;stroke-linejoin:round;stroke-miterlimit:4;stroke-dasharray:none;stroke-opacity:1"
         d="m 7.3025942,28.158374 1.207295,0.722613 -1.1789864,0.773509"
         id="path9281-6-3-3"
         sodipodi:nodetypes="ccc" />
      <path
         style="display:inline;fill:none;stroke:#000000;stroke-width:0.176389;stroke-linecap:round;stroke-linejoin:round;stroke-miterlimit:4;stroke-dasharray:none;stroke-opacity:1"
         d="m 9.2183966,28.15837 1.2072954,0.722613 -1.1789864,0.773509"
         id="path9281-1-1-7"
         sodipodi:nodetypes="ccc" />
    </g>
    <g
       id="g9525-2-45"
       style="display:inline"
       transform="translate(13.732898,-0.005875)">
      <path
         style="fill:none;stroke:#000000;stroke-width:0.176389;stroke-linecap:round;stroke-linejoin:round;stroke-miterlimit:4;stroke-dasharray:none;stroke-opacity:1"
         d="m 5.3125628,28.15837 1.207295,0.722613 -1.1789864,0.773509"
         id="path9281-9-2"
         sodipodi:nodetypes="ccc" />
      <path
         style="display:inline;fill:none;stroke:#000000;stroke-width:0.176389;stroke-linecap:round;stroke-linejoin:round;stroke-miterlimit:4;stroke-dasharray:none;stroke-opacity:1"
         d="m 7.3025942,28.158374 1.207295,0.722613 -1.1789864,0.773509"
         id="path9281-6-3-5"
         sodipodi:nodetypes="ccc" />
      <path
         style="display:inline;fill:none;stroke:#000000;stroke-width:0.176389;stroke-linecap:round;stroke-linejoin:round;stroke-miterlimit:4;stroke-dasharray:none;stroke-opacity:1"
         d="m 9.2183966,28.15837 1.2072954,0.722613 -1.1789864,0.773509"
         id="path9281-1-1-4"
         sodipodi:nodetypes="ccc" />
    </g>
    <g
       id="g9525-2-7"
       style="display:inline"
       transform="translate(27.537567,-13.939185)">
      <path
         style="fill:none;stroke:#000000;stroke-width:0.176389;stroke-linecap:round;stroke-linejoin:round;stroke-miterlimit:4;stroke-dasharray:none;stroke-opacity:1"
         d="m 5.3125628,28.15837 1.207295,0.722613 -1.1789864,0.773509"
         id="path9281-9-4"
         sodipodi:nodetypes="ccc" />
      <path
         style="display:inline;fill:none;stroke:#000000;stroke-width:0.176389;stroke-linecap:round;stroke-linejoin:round;stroke-miterlimit:4;stroke-dasharray:none;stroke-opacity:1"
         d="m 7.3025942,28.158374 1.207295,0.722613 -1.1789864,0.773509"
         id="path9281-6-3-4"
         sodipodi:nodetypes="ccc" />
      <path
         style="display:inline;fill:none;stroke:#000000;stroke-width:0.176389;stroke-linecap:round;stroke-linejoin:round;stroke-miterlimit:4;stroke-dasharray:none;stroke-opacity:1"
         d="m 9.2183966,28.15837 1.2072954,0.722613 -1.1789864,0.773509"
         id="path9281-1-1-3"
         sodipodi:nodetypes="ccc" />
    </g>
    <g
       id="g9525-2-0"
       style="display:inline"
       transform="rotate(180,21.591977,28.903497)">
      <path
         style="fill:none;stroke:#000000;stroke-width:0.176389;stroke-linecap:round;stroke-linejoin:round;stroke-miterlimit:4;stroke-dasharray:none;stroke-opacity:1"
         d="m 5.3125628,28.15837 1.207295,0.722613 -1.1789864,0.773509"
         id="path9281-9-78"
         sodipodi:nodetypes="ccc" />
      <path
         style="display:inline;fill:none;stroke:#000000;stroke-width:0.176389;stroke-linecap:round;stroke-linejoin:round;stroke-miterlimit:4;stroke-dasharray:none;stroke-opacity:1"
         d="m 7.3025942,28.158374 1.207295,0.722613 -1.1789864,0.773509"
         id="path9281-6-3-68"
         sodipodi:nodetypes="ccc" />
      <path
         style="display:inline;fill:none;stroke:#000000;stroke-width:0.176389;stroke-linecap:round;stroke-linejoin:round;stroke-miterlimit:4;stroke-dasharray:none;stroke-opacity:1"
         d="m 9.2183966,28.15837 1.2072954,0.722613 -1.1789864,0.773509"
         id="path9281-1-1-8"
         sodipodi:nodetypes="ccc" />
    </g>
  </g>
  <g
     inkscape:groupmode="layer"
     id="layer11"
     inkscape:label="text"
     style="display:inline"
     transform="translate(7.2801088e-7,-4.4832953)">
    <text
       xml:space="preserve"
       style="font-style:normal;font-variant:normal;font-weight:normal;font-stretch:normal;font-size:2.11667px;line-height:6.35px;font-family:'PT Sans';-inkscape-font-specification:'PT Sans';font-variant-ligatures:normal;font-variant-caps:normal;font-variant-numeric:normal;text-align:start;letter-spacing:0px;word-spacing:0px;writing-mode:lr-tb;text-anchor:start;fill:#000000;fill-opacity:1;stroke:none;stroke-width:0.264583px;stroke-linecap:butt;stroke-linejoin:miter;stroke-opacity:1"
       x="8.2853556"
       y="-6.0032654"
       id="text8163" />
    <text
       xml:space="preserve"
       style="font-style:normal;font-variant:normal;font-weight:normal;font-stretch:normal;font-size:2.11667px;line-height:6.35px;font-family:'PT Sans';-inkscape-font-specification:'PT Sans';font-variant-ligatures:normal;font-variant-caps:normal;font-variant-numeric:normal;text-align:start;letter-spacing:0px;word-spacing:0px;writing-mode:lr-tb;text-anchor:start;fill:#000000;fill-opacity:1;stroke:none;stroke-width:0.264583px;stroke-linecap:butt;stroke-linejoin:miter;stroke-opacity:1"
       x="9.0871639"
       y="-5.2014565"
       id="text8167" />
    <text
       xml:space="preserve"
       style="font-style:normal;font-variant:normal;font-weight:normal;font-stretch:normal;font-size:2.11667px;line-height:6.35px;font-family:'PT Sans';-inkscape-font-specification:'PT Sans';font-variant-ligatures:normal;font-variant-caps:normal;font-variant-numeric:normal;text-align:start;letter-spacing:0px;word-spacing:0px;writing-mode:lr-tb;text-anchor:start;fill:#000000;fill-opacity:1;stroke:none;stroke-width:0.264583px;stroke-linecap:butt;stroke-linejoin:miter;stroke-opacity:1"
       x="47.199776"
       y="11.932068"
       id="text8175"><tspan
         sodipodi:role="line"
         id="tspan8173"
         x="47.199776"
         y="11.932068"
         style="stroke-width:0.264583px">$\strip_{2}$</tspan></text>
    <text
       xml:space="preserve"
       style="font-style:normal;font-variant:normal;font-weight:normal;font-stretch:normal;font-size:2.11667px;line-height:6.35px;font-family:'PT Sans';-inkscape-font-specification:'PT Sans';font-variant-ligatures:normal;font-variant-caps:normal;font-variant-numeric:normal;text-align:start;letter-spacing:0px;word-spacing:0px;writing-mode:lr-tb;text-anchor:start;display:inline;fill:#000000;fill-opacity:1;stroke:none;stroke-width:0.264583px;stroke-linecap:butt;stroke-linejoin:miter;stroke-opacity:1"
       x="47.199776"
       y="35.808071"
       id="text8175-0"><tspan
         sodipodi:role="line"
         id="tspan8173-2"
         x="47.199776"
         y="35.808071"
         style="stroke-width:0.264583px">$\strip_{1}$</tspan></text>
    <text
       xml:space="preserve"
       style="font-style:normal;font-variant:normal;font-weight:normal;font-stretch:normal;font-size:2.11667px;line-height:6.35px;font-family:'PT Sans';-inkscape-font-specification:'PT Sans';font-variant-ligatures:normal;font-variant-caps:normal;font-variant-numeric:normal;text-align:start;letter-spacing:0px;word-spacing:0px;writing-mode:lr-tb;text-anchor:start;fill:#000000;fill-opacity:1;stroke:none;stroke-width:0.264583px;stroke-linecap:butt;stroke-linejoin:miter;stroke-opacity:1"
       x="3.4091713"
       y="20.05241"
       id="text8179"><tspan
         sodipodi:role="line"
         id="tspan8177"
         x="3.4091713"
         y="20.05241"
         style="stroke-width:0.264583px">$\bdX_1$</tspan></text>
    <text
       xml:space="preserve"
       style="font-style:normal;font-variant:normal;font-weight:normal;font-stretch:normal;font-size:2.11667px;line-height:6.35px;font-family:'PT Sans';-inkscape-font-specification:'PT Sans';font-variant-ligatures:normal;font-variant-caps:normal;font-variant-numeric:normal;text-align:start;letter-spacing:0px;word-spacing:0px;writing-mode:lr-tb;text-anchor:start;fill:#000000;fill-opacity:1;stroke:none;stroke-width:0.264583px;stroke-linecap:butt;stroke-linejoin:miter;stroke-opacity:1"
       x="3.3455458"
       y="26.345829"
       id="text8183"><tspan
         sodipodi:role="line"
         id="tspan8181"
         x="3.3455458"
         y="26.345829"
         style="stroke-width:0.264583px">$\bdY_1$</tspan></text>
    <text
       xml:space="preserve"
       style="font-style:normal;font-variant:normal;font-weight:normal;font-stretch:normal;font-size:2.11667px;line-height:6.35px;font-family:'PT Sans';-inkscape-font-specification:'PT Sans';font-variant-ligatures:normal;font-variant-caps:normal;font-variant-numeric:normal;text-align:start;letter-spacing:0px;word-spacing:0px;writing-mode:lr-tb;text-anchor:start;display:inline;fill:#000000;fill-opacity:1;stroke:none;stroke-width:0.264583px;stroke-linecap:butt;stroke-linejoin:miter;stroke-opacity:1"
       x="17.164249"
       y="20.05241"
       id="text8179-3"><tspan
         sodipodi:role="line"
         id="tspan8177-7"
         x="17.164249"
         y="20.05241"
         style="stroke-width:0.264583px">$\bdX_2$</tspan></text>
    <text
       xml:space="preserve"
       style="font-style:normal;font-variant:normal;font-weight:normal;font-stretch:normal;font-size:2.11667px;line-height:6.35px;font-family:'PT Sans';-inkscape-font-specification:'PT Sans';font-variant-ligatures:normal;font-variant-caps:normal;font-variant-numeric:normal;text-align:start;letter-spacing:0px;word-spacing:0px;writing-mode:lr-tb;text-anchor:start;display:inline;fill:#000000;fill-opacity:1;stroke:none;stroke-width:0.264583px;stroke-linecap:butt;stroke-linejoin:miter;stroke-opacity:1"
       x="30.303747"
       y="20.05241"
       id="text8179-3-1"><tspan
         sodipodi:role="line"
         id="tspan8177-7-4"
         x="30.303747"
         y="20.05241"
         style="stroke-width:0.264583px">$\bdX_3$</tspan></text>
    <text
       xml:space="preserve"
       style="font-style:normal;font-variant:normal;font-weight:normal;font-stretch:normal;font-size:2.11667px;line-height:6.35px;font-family:'PT Sans';-inkscape-font-specification:'PT Sans';font-variant-ligatures:normal;font-variant-caps:normal;font-variant-numeric:normal;text-align:start;letter-spacing:0px;word-spacing:0px;writing-mode:lr-tb;text-anchor:start;display:inline;fill:#000000;fill-opacity:1;stroke:none;stroke-width:0.264583px;stroke-linecap:butt;stroke-linejoin:miter;stroke-opacity:1"
       x="17.078506"
       y="26.345829"
       id="text8183-5"><tspan
         sodipodi:role="line"
         id="tspan8181-9"
         x="17.078506"
         y="26.345829"
         style="stroke-width:0.264583px">$\bdY_2$</tspan></text>
    <text
       xml:space="preserve"
       style="font-style:normal;font-variant:normal;font-weight:normal;font-stretch:normal;font-size:2.11667px;line-height:6.35px;font-family:'PT Sans';-inkscape-font-specification:'PT Sans';font-variant-ligatures:normal;font-variant-caps:normal;font-variant-numeric:normal;text-align:start;letter-spacing:0px;word-spacing:0px;writing-mode:lr-tb;text-anchor:start;display:inline;fill:#000000;fill-opacity:1;stroke:none;stroke-width:0.264583px;stroke-linecap:butt;stroke-linejoin:miter;stroke-opacity:1"
       x="30.242941"
       y="26.345829"
       id="text8183-5-4"><tspan
         sodipodi:role="line"
         id="tspan8181-9-3"
         x="30.242941"
         y="26.345829"
         style="stroke-width:0.264583px">$\bdY_3$</tspan></text>
    <text
       xml:space="preserve"
       style="font-size:2.11667px;line-height:1.25;font-family:Roboto;-inkscape-font-specification:'Roboto, Normal';letter-spacing:0px;word-spacing:0px;stroke-width:0.264583"
       x="57.485752"
       y="25.864859"
       id="text48482"><tspan
         sodipodi:role="line"
         id="tspan48480"
         style="stroke-width:0.264583"
         x="57.485752"
         y="25.864859">$y_1$</tspan></text>
    <text
       xml:space="preserve"
       style="font-size:2.11667px;line-height:1.25;font-family:Roboto;-inkscape-font-specification:'Roboto, Normal';letter-spacing:0px;word-spacing:0px;display:inline;stroke-width:0.264583"
       x="61.97715"
       y="25.864859"
       id="text48482-2"><tspan
         sodipodi:role="line"
         id="tspan48480-0"
         style="stroke-width:0.264583"
         x="61.97715"
         y="25.864859">$y_2$</tspan></text>
    <text
       xml:space="preserve"
       style="font-size:2.11667px;line-height:1.25;font-family:Roboto;-inkscape-font-specification:'Roboto, Normal';letter-spacing:0px;word-spacing:0px;display:inline;stroke-width:0.264583"
       x="66.467308"
       y="25.864859"
       id="text48482-2-9"><tspan
         sodipodi:role="line"
         id="tspan48480-0-2"
         style="stroke-width:0.264583"
         x="66.467308"
         y="25.864859">$y_3$</tspan></text>
    <text
       xml:space="preserve"
       style="font-size:2.11667px;line-height:1.25;font-family:Roboto;-inkscape-font-specification:'Roboto, Normal';letter-spacing:0px;word-spacing:0px;stroke-width:0.264583"
       x="57.30405"
       y="19.249939"
       id="text56652"><tspan
         sodipodi:role="line"
         id="tspan56650"
         style="stroke-width:0.264583"
         x="57.30405"
         y="19.249939">$x_1$</tspan></text>
    <text
       xml:space="preserve"
       style="font-size:2.11667px;line-height:1.25;font-family:Roboto;-inkscape-font-specification:'Roboto, Normal';letter-spacing:0px;word-spacing:0px;display:inline;stroke-width:0.264583"
       x="61.841183"
       y="19.249939"
       id="text56652-6"><tspan
         sodipodi:role="line"
         id="tspan56650-3"
         style="stroke-width:0.264583"
         x="61.841183"
         y="19.249939">$x_2$</tspan></text>
    <text
       xml:space="preserve"
       style="font-size:2.11667px;line-height:1.25;font-family:Roboto;-inkscape-font-specification:'Roboto, Normal';letter-spacing:0px;word-spacing:0px;display:inline;stroke-width:0.264583"
       x="66.380066"
       y="19.249939"
       id="text56652-6-0"><tspan
         sodipodi:role="line"
         id="tspan56650-3-6"
         style="stroke-width:0.264583"
         x="66.380066"
         y="19.249939">$x_3$</tspan></text>
    <text
       xml:space="preserve"
       style="font-size:2.11667px;line-height:1.25;font-family:Roboto;-inkscape-font-specification:'Roboto, Normal';letter-spacing:0px;word-spacing:0px;stroke-width:0.264583"
       x="56.885414"
       y="10.964581"
       id="text67266"><tspan
         sodipodi:role="line"
         id="tspan67264"
         style="stroke-width:0.264583"
         x="56.885414"
         y="10.964581">$\bar{e}_2$</tspan></text>
    <text
       xml:space="preserve"
       style="font-size:2.11667px;line-height:1.25;font-family:Roboto;-inkscape-font-specification:'Roboto, Normal';letter-spacing:0px;word-spacing:0px;display:inline;stroke-width:0.264583"
       x="56.885414"
       y="34.906387"
       id="text67266-6"><tspan
         sodipodi:role="line"
         id="tspan67264-1"
         style="stroke-width:0.264583"
         x="56.885414"
         y="34.906387">$\bar{e}_1$</tspan></text>
  </g>
</svg>
